\relax 
\catcode`"\active
\select@language{portuguese}
\@writefile{toc}{\select@language{portuguese}}
\@writefile{lof}{\select@language{portuguese}}
\@writefile{lot}{\select@language{portuguese}}
\@writefile{toc}{\contentsline {chapter}{\numberline {I}Resumo}{i}}
\@writefile{lof}{\addvspace {10\p@ }}
\@writefile{lot}{\addvspace {10\p@ }}
\@writefile{toc}{\contentsline {chapter}{\numberline {II}Agradecimentos}{ii}}
\@writefile{lof}{\addvspace {10\p@ }}
\@writefile{lot}{\addvspace {10\p@ }}
\@writefile{toc}{\contentsline {chapter}{\IeC {\'I}ndice}{iii}}
\citation{jcdk}
\citation{oracle}
\citation{jcdkit}
\citation{javacard.framework}
\@writefile{toc}{\contentsline {chapter}{\numberline {1}Introdu\IeC {\c c}\IeC {\~a}o}{1}}
\@writefile{lof}{\addvspace {10\p@ }}
\@writefile{lot}{\addvspace {10\p@ }}
\citation{netbeans}
\citation{eclipse}
\citation{IBM}
\citation{eclipseFoundation}
\citation{eclipse}
\citation{firefox}
\citation{chrome}
\citation{notepad}
\citation{pspad}
\citation{flash}
\citation{quicktime}
\citation{silverlight}
\citation{greenuml}
\citation{wikipedia}
\citation{plugin}
\citation{JCP4E.Wiki}
\citation{JCP4E.Blog}
\@writefile{toc}{\contentsline {chapter}{\numberline {2}Objetivos}{4}}
\@writefile{lof}{\addvspace {10\p@ }}
\@writefile{lot}{\addvspace {10\p@ }}
\@writefile{toc}{\contentsline {section}{\numberline {2.1}Funcionalidades Obrigat\IeC {\'o}rias}{4}}
\citation{javacard.devkit}
\@writefile{toc}{\contentsline {section}{\numberline {2.2}Funcionalidades Opcionais}{5}}
\@writefile{toc}{\contentsline {section}{\numberline {2.3}Licen\IeC {\c c}a}{6}}
\@writefile{tdo}{\contentsline {todo}{A partir deste ponto o relat\IeC {\'o}rio n\IeC {\~a}o foi revisto}{6}}
\pgfsyspdfmark {pgfid1}{19531038}{12195824}
\@writefile{toc}{\contentsline {chapter}{\numberline {3}Arquitetura}{7}}
\@writefile{lof}{\addvspace {10\p@ }}
\@writefile{lot}{\addvspace {10\p@ }}
\@writefile{lof}{\contentsline {figure}{\numberline {3.1}{\ignorespaces Evolu\IeC {\c c}\IeC {\~a}o dos Comandos}}{7}}
\newlabel{fig:comandos}{{3.1}{7}}
\@writefile{lof}{\contentsline {figure}{\numberline {3.2}{\ignorespaces Evolu\IeC {\c c}\IeC {\~a}o das Bibliotecas.}}{8}}
\newlabel{fig:bibliotecas}{{3.2}{8}}
\@writefile{lof}{\contentsline {figure}{\numberline {3.3}{\ignorespaces Esbo\IeC {\c c}o da Arquitetura.}}{9}}
\newlabel{fig:arquitetura}{{3.3}{9}}
\@writefile{toc}{\contentsline {section}{\numberline {3.1}Camada de Liga\IeC {\c c}\IeC {\~a}o JCSDK}{10}}
\@writefile{lof}{\contentsline {figure}{\numberline {3.4}{\ignorespaces UML da camada JCSDK.}}{11}}
\newlabel{fig:JCP4E.JCSDK.UML}{{3.4}{11}}
\@writefile{toc}{\contentsline {subsection}{\numberline {3.1.1}Descri\IeC {\c c}\IeC {\~a}o das Entidades}{11}}
\@writefile{toc}{\contentsline {subsection}{\numberline {3.1.2}Persist\IeC {\^e}ncia dos Dados}{13}}
\@writefile{toc}{\contentsline {section}{\numberline {3.2}Camada de Liga\IeC {\c c}\IeC {\~a}o Eclipse}{13}}
\@writefile{toc}{\contentsline {section}{\numberline {3.3}Camada de Interliga\IeC {\c c}\IeC {\~a}o}{13}}
\bibcite{jcdk}{1}
\bibcite{oracle}{2}
\bibcite{jcdkit}{3}
\bibcite{javacard.framework}{4}
\bibcite{netbeans}{5}
\bibcite{eclipse}{6}
\bibcite{IBM}{7}
\bibcite{eclipseFoundation}{8}
\bibcite{JCP4E.Wiki}{9}
\bibcite{JCP4E.Blog}{10}
\bibcite{javacard.devkit}{11}
\bibcite{firefox}{12}
\bibcite{chrome}{13}
\bibcite{notepad}{14}
\bibcite{pspad}{15}
\bibcite{flash}{16}
\bibcite{quicktime}{17}
\bibcite{silverlight}{18}
\bibcite{greenuml}{19}
\bibcite{wikipedia}{20}
\bibcite{plugin}{21}
\bibcite{tomcat}{22}
\bibcite{java.jaxb}{23}
\bibcite{eclipse.pde}{24}
\bibcite{eclipse.platform}{25}
\@writefile{toc}{\contentsline {chapter}{Refer\IeC {\^e}ncias}{14}}
\@writefile{toc}{\contentsline {chapter}{Lista de Figuras}{15}}
